Freshwater Atlas Collections — fwa_collections • fwapgr
…
    See also

    Other collections: 
fwa_collection_properties(),
fwa_collection()

    Examples

fwa_collections()
#> # A tibble: 39 × 4
#>    collection_id      description        extent$spatial$crs   extent$$bbox links
#>    <chr>              <chr>              <chr>                <list>       <lis>
#>  1 hydrosheds.hybas_… Data for table hy… http://www.opengis.… <int [4]>    <df …
#>  2 usgs.wbdhu12       Data for table us… http://www.opengis.… <int [4]>    <df …
#>  3 whse_basemapping.… Data for table wh… http://www.opengis.… <int [4]>    <df …
#>  4 whse_basemapping.… Data for table wh… http://www.opengis.… <int [4]>    <df …
#>  5 whse_basemapping.… Data for table wh… http://www.opengis.… <int [4]>    <df …
#>  6 whse_basemapping.… Data for table wh… http://www.opengis.… <int [4]>    <df …
#>  7 whse_basemapping.… Data for table wh… http://www.opengis.… <int [4]>    <df …
#>  8 whse_basemapping.… Data for table wh… http://www.opengis.… <int [4]>    <df …
#>  9 whse_basemapping.… Data for table wh… http://www.opengis.… <int [4]>    <df …
#> 10 whse_basemapping.… Data for table wh… http://www.opengis.… <int [4]>    <df …
#> # … with 29 more rows
…
