Using fwapgr • fwapgr
…
  Changelog

      Using fwapgr

      Source: vignettes/fwapgr.Rmd
      fwapgr.Rmd

Let’s make a map of the Yakoun River watershed

Check out the metadata

We’ll start by looking at the available layers

fwapgr::fwa_list_layers()
#> # A tibble: 28 x 7
#>    f_table_catalog f_table_schema f_table_name f_geometry_colu… coord_dimension
#>    <chr>           <chr>          <chr>        <chr>                      <int>
#>  1 postgis         whse_basemapp… fwa_manmade… geom                           2
#>  2 postgis         whse_basemapp… fwa_watersh… geom                           4
#>  3 postgis         whse_basemapp… fwa_linear_… geom                           2
#>  4 postgis         whse_basemapp… fwa_streams… geom                           4
#>  5 postgis         whse_basemapp… fwa_waterbo… geom                           4
#>  6 postgis         whse_basemapp… fwa_coastli… geom                           2
#>  7 postgis         whse_basemapp… fwa_lakes_p… geom                           2
#>  8 postgis         whse_basemapp… fwa_named_w… geom                           2
#>  9 postgis         whse_basemapp… fwa_approx_… geom                           2
#> 10 postgis         whse_basemapp… fwa_stream_… geom                           3
#> # … with 18 more rows, and 2 more variables: srid <int>, type <chr>

…and which columns are in the ‘fwa_stream_networks_sp’ layer

fwapgr::fwa_list_columns('fwa_stream_networks_sp')
#> # A tibble: 27 x 2
#>    field_name               field_type
#>    <chr>                    <chr>     
#>  1 linear_feature_id        int8      
#>  2 watershed_group_id       int8      
#>  3 edge_type                int8      
#>  4 blue_line_key            int8      
#>  5 watershed_key            int8      
#>  6 fwa_watershed_code       varchar   
#>  7 local_watershed_code     varchar   
#>  8 watershed_group_code     varchar   
#>  9 downstream_route_measure float8    
#> 10 length_metre             float8    
#> # … with 17 more rows
…
