The Collections and their Properies • fwapgr
…
#>  2 next_down number ""         
#>  3 next_sink number ""         
#>  4 main_bas  number ""         
#>  5 dist_sink number ""         
#>  6 dist_main number ""         
#>  7 sub_area  number ""         
#>  8 up_area   number ""         
#>  9 pfaf_id   number ""         
#> 10 endo      number ""         
#> 11 coast     number ""         
#> 12 order     number ""         
#> 13 sort      number ""         
#> 
#> $usgs.wbdhu12
#> # A tibble: 21 × 3
#>    name              type   description
#>    <chr>             <chr>  <chr>      
#>  1 ogc_fid           number ""         
#>  2 tnmid             string ""         
#>  3 metasourceid      string ""         
#>  4 sourcedatadesc    string ""         
#>  5 sourceoriginator  string ""         
#>  6 sourcefeatureid   string ""         
#>  7 loaddate          string ""         
#>  8 referencegnis_ids string ""         
#>  9 areaacres         number ""         
#> 10 areasqkm          number ""         
#> # … with 11 more rows
#> 
#> $whse_basemapping.fwa_approx_borders
#> # A tibble: 2 × 3
#>   name             type   description
#>   <chr>            <chr>  <chr>      
#> 1 approx_border_id number ""         
#> 2 border           string ""         
#> 
#> $whse_basemapping.fwa_assessment_watersheds_poly
#> # A tibble: 24 × 3
#>    name                 type   description
#>    <chr>                <chr>  <chr>      
#>  1 watershed_feature_id number ""         
#>  2 watershed_group_id   number ""         
#>  3 watershed_type       string ""         
#>  4 gnis_id_1            number ""         
#>  5 gnis_name_1          string ""         
#>  6 gnis_id_2            number ""         
#>  7 gnis_name_2          string ""         
#>  8 gnis_id_3            number ""         
#>  9 gnis_name_3          string ""         
#> 10 waterbody_id         number ""         
#> # … with 14 more rows
…
#>  3 edge_type                number ""         
#>  4 blue_line_key            number ""         
#>  5 watershed_key            number ""         
#>  6 fwa_watershed_code       string ""         
#>  7 local_watershed_code     string ""         
#>  8 watershed_group_code     string ""         
#>  9 downstream_route_measure number ""         
#> 10 length_metre             number ""         
#> 11 feature_source           string ""         
#> 12 feature_code             string ""         
#> 13 wscode_ltree             string ""         
#> 14 localcode_ltree          string ""         
#> 
#> $whse_basemapping.fwa_glaciers_poly
#> # A tibble: 24 × 3
#>    name               type   description
#>    <chr>              <chr>  <chr>      
#>  1 waterbody_poly_id  number ""         
#>  2 watershed_group_id number ""         
#>  3 waterbody_type     string ""         
#>  4 waterbody_key      number ""         
#>  5 area_ha            number ""         
#>  6 gnis_id_1          number ""         
#>  7 gnis_name_1        string ""         
#>  8 gnis_id_2          number ""         
#>  9 gnis_name_2        string ""         
#> 10 gnis_id_3          number ""         
#> # … with 14 more rows
…
#>  3 gnis_id_1            number ""         
#>  4 gnis_name_1          string ""         
#>  5 gnis_id_2            number ""         
#>  6 gnis_name_2          string ""         
#>  7 gnis_id_3            number ""         
#>  8 gnis_name_3          string ""         
#>  9 fwa_watershed_code   string ""         
#> 10 local_watershed_code string ""         
#> 11 area_ha              number ""         
#> 12 feature_code         string ""         
#> 13 wscode_ltree         string ""         
#> 14 localcode_ltree      string ""         
#> 
#> $whse_basemapping.fwa_lakes_poly
#> # A tibble: 24 × 3
#>    name               type   description
#>    <chr>              <chr>  <chr>      
#>  1 waterbody_poly_id  number ""         
#>  2 watershed_group_id number ""         
#>  3 waterbody_type     string ""         
#>  4 waterbody_key      number ""         
#>  5 area_ha            number ""         
#>  6 gnis_id_1          number ""         
#>  7 gnis_name_1        string ""         
#>  8 gnis_id_2          number ""         
#>  9 gnis_name_2        string ""         
#> 10 gnis_id_3          number ""         
#> # … with 14 more rows
…
#>  4 waterbody_key            number ""         
#>  5 blue_line_key            number ""         
#>  6 watershed_key            number ""         
#>  7 fwa_watershed_code       string ""         
#>  8 local_watershed_code     string ""         
#>  9 watershed_group_code     string ""         
#> 10 downstream_route_measure number ""         
#> 11 length_metre             number ""         
#> 12 feature_source           string ""         
#> 13 feature_code             string ""         
#> 14 wscode_ltree             string ""         
#> 15 localcode_ltree          string ""         
#> 
#> $whse_basemapping.fwa_manmade_waterbodies_poly
#> # A tibble: 24 × 3
#>    name               type   description
#>    <chr>              <chr>  <chr>      
#>  1 waterbody_poly_id  number ""         
#>  2 watershed_group_id number ""         
#>  3 waterbody_type     string ""         
#>  4 waterbody_key      number ""         
#>  5 area_ha            number ""         
#>  6 gnis_id_1          number ""         
#>  7 gnis_name_1        string ""         
#>  8 gnis_id_2          number ""         
#>  9 gnis_name_2        string ""         
#> 10 gnis_id_3          number ""         
#> # … with 14 more rows
…
#>  5 gnis_name            string ""         
#>  6 obstruction_type     string ""         
#>  7 blue_line_key        number ""         
#>  8 watershed_key        number ""         
#>  9 fwa_watershed_code   string ""         
#> 10 local_watershed_code string ""         
#> 11 watershed_group_code string ""         
#> 12 route_measure        number ""         
#> 13 feature_source       string ""         
#> 14 feature_code         string ""         
#> 15 wscode_ltree         string ""         
#> 16 localcode_ltree      string ""         
#> 
#> $whse_basemapping.fwa_rivers_poly
#> # A tibble: 24 × 3
#>    name               type   description
#>    <chr>              <chr>  <chr>      
#>  1 waterbody_poly_id  number ""         
#>  2 watershed_group_id number ""         
#>  3 waterbody_type     string ""         
#>  4 waterbody_key      number ""         
#>  5 area_ha            number ""         
#>  6 gnis_id_1          number ""         
#>  7 gnis_name_1        string ""         
#>  8 gnis_id_2          number ""         
#>  9 gnis_name_2        string ""         
#> 10 gnis_id_3          number ""         
#> # … with 14 more rows
#> 
#> $whse_basemapping.fwa_stream_networks_sp
#> # A tibble: 27 × 3
#>    name                     type   description
#>    <chr>                    <chr>  <chr>      
#>  1 linear_feature_id        number ""         
#>  2 watershed_group_id       number ""         
#>  3 edge_type                number ""         
#>  4 blue_line_key            number ""         
#>  5 watershed_key            number ""         
#>  6 fwa_watershed_code       string ""         
#>  7 local_watershed_code     string ""         
#>  8 watershed_group_code     string ""         
#>  9 downstream_route_measure number ""         
#> 10 length_metre             number ""         
#> # … with 17 more rows
…
#>  7 local_watershed_code string ""         
#>  8 wscode_ltree         string ""         
#>  9 localcode_ltree      string ""         
#> 10 basin_id             number ""         
#> 
#> $whse_basemapping.fwa_watershed_groups_subdivided
#> # A tibble: 3 × 3
#>   name                               type   description
#>   <chr>                              <chr>  <chr>      
#> 1 fwa_watershed_groups_subdivided_id number ""         
#> 2 watershed_group_id                 number ""         
#> 3 watershed_group_code               string ""         
#> 
#> $whse_basemapping.fwa_watersheds_poly
#> # A tibble: 36 × 3
#>    name                 type   description
#>    <chr>                <chr>  <chr>      
#>  1 watershed_feature_id number ""         
#>  2 watershed_group_id   number ""         
#>  3 watershed_type       string ""         
#>  4 gnis_id_1            number ""         
#>  5 gnis_name_1          string ""         
#>  6 gnis_id_2            number ""         
#>  7 gnis_name_2          string ""         
#>  8 gnis_id_3            number ""         
#>  9 gnis_name_3          string ""         
#> 10 waterbody_id         number ""         
#> # … with 26 more rows
#> 
#> $whse_basemapping.fwa_wetlands_poly
#> # A tibble: 24 × 3
#>    name               type   description
#>    <chr>              <chr>  <chr>      
#>  1 waterbody_poly_id  number ""         
#>  2 watershed_group_id number ""         
#>  3 waterbody_type     string ""         
#>  4 waterbody_key      number ""         
#>  5 area_ha            number ""         
#>  6 gnis_id_1          number ""         
#>  7 gnis_name_1        string ""         
#>  8 gnis_id_2          number ""         
#>  9 gnis_name_2        string ""         
#> 10 gnis_id_3          number ""         
#> # … with 14 more rows
#> 
#> $whse_basemapping.gba_railway_tracks_sp
#> # A tibble: 48 × 3
#>    name                 type   description
#>    <chr>                <chr>  <chr>      
#>  1 id                   string ""         
#>  2 railway_track_id     number ""         
#>  3 nid                  string ""         
#>  4 track_segment_id     string ""         
#>  5 track_name           string ""         
#>  6 track_classification string ""         
#>  7 regulator            string ""         
#>  8 transport_type       string ""         
#>  9 use_type             string ""         
#> 10 gauge                string ""         
#> # … with 38 more rows
…
#>    <chr>                <chr>  <chr>      
#>  1 id                   string ""         
#>  2 transmission_line_id number ""         
#>  3 circuit_name         string ""         
#>  4 circuit_description  string ""         
#>  5 voltage              string ""         
#>  6 owner                string ""         
#>  7 source_date          string ""         
#>  8 feature_length_m     number ""         
#>  9 objectid             number ""         
#> 10 se_anno_cad_data     string ""         
#> 11 ogc_fid              number ""         
#> 
#> $whse_basemapping.gns_geographical_names_sp
#> # A tibble: 24 × 3
#>    name                  type   description
#>    <chr>                 <chr>  <chr>      
#>  1 id                    string ""         
#>  2 geographical_names_id number ""         
#>  3 feature_id            number ""         
#>  4 feature_uuid          string ""         
#>  5 geographical_name     string ""         
#>  6 feature_type          string ""         
#>  7 feature_type_code     number ""         
#>  8 feature_category      string ""         
#>  9 feature_class         string ""         
#> 10 latitude              number ""         
#> # … with 14 more rows
#> 
#> $whse_basemapping.transport_line
#> # A tibble: 90 × 3
#>    name                          type   description
#>    <chr>                         <chr>  <chr>      
#>  1 transport_line_id             number ""         
#>  2 create_integration_session_id number ""         
#>  3 create_integration_date       string ""         
#>  4 modify_integration_session_id number ""         
#>  5 modify_integration_date       string ""         
#>  6 create_partner_org_id         number ""         
#>  7 create_partner_org            string ""         
#>  8 modify_partner_org_id         number ""         
#>  9 modify_partner_org            string ""         
#> 10 custodian_partner_org_id      number ""         
#> # … with 80 more rows
#> 
#> $whse_basemapping.trim_cultural_lines
#> # A tibble: 32 × 3
#>    name       type   description
#>    <chr>      <chr>  <chr>      
#>  1 id         string ""         
#>  2 fcode      string ""         
#>  3 elevation  number ""         
#>  4 admit_year number ""         
#>  5 admit_mnth number ""         
#>  6 admit_day  number ""         
#>  7 asrc_year  number ""         
#>  8 asrc_mnth  number ""         
#>  9 asrc_day   number ""         
#> 10 admit_rfc  string ""         
#> # … with 22 more rows
#> 
#> $whse_basemapping.trim_cultural_points
#> # A tibble: 32 × 3
#>    name       type   description
#>    <chr>      <chr>  <chr>      
#>  1 id         string ""         
#>  2 fcode      string ""         
#>  3 elevation  number ""         
#>  4 rotation   number ""         
#>  5 admit_year number ""         
#>  6 admit_mnth number ""         
#>  7 admit_day  number ""         
#>  8 asrc_year  number ""         
#>  9 asrc_mnth  number ""         
#> 10 asrc_day   number ""         
#> # … with 22 more rows
…
#>    <chr>                        <chr>    <chr>      
#>  1 fish_obsrvtn_pnt_distinct_id number   ""         
#>  2 obs_ids                      number[] ""         
#>  3 utm_zone                     number   ""         
#>  4 utm_easting                  number   ""         
#>  5 utm_northing                 number   ""         
#>  6 wbody_id                     number   ""         
#>  7 waterbody_type               string   ""         
#>  8 new_watershed_code           string   ""         
#>  9 species_ids                  number[] ""         
#> 10 species_codes                string[] ""         
#> 11 watershed_group_code         string   ""         
#> 
#> $whse_fish.fiss_fish_obsrvtn_pnt_sp
#> # A tibble: 28 × 3
#>    name                      type   description
#>    <chr>                     <chr>  <chr>      
#>  1 id                        string ""         
#>  2 fish_observation_point_id number ""         
#>  3 wbody_id                  number ""         
#>  4 species_code              string ""         
#>  5 agency_id                 string ""         
#>  6 point_type_code           string ""         
#>  7 observation_date          string ""         
#>  8 agency_name               string ""         
#>  9 source                    string ""         
#> 10 source_ref                string ""         
#> # … with 18 more rows
#> 
#> $whse_fish.fiss_fish_obsrvtn_unmatched
#> # A tibble: 4 × 3
#>   name                         type     description
#>   <chr>                        <chr>    <chr>      
#> 1 fish_obsrvtn_pnt_distinct_id number   ""         
#> 2 obs_ids                      number[] ""         
#> 3 species_ids                  number[] ""         
#> 4 distance_to_stream           number   ""         
#> 
#> $whse_fish.fiss_obstacles_pnt_sp
#> # A tibble: 25 × 3
#>    name                   type   description
#>    <chr>                  <chr>  <chr>      
#>  1 id                     string ""         
#>  2 fish_obstacle_point_id number ""         
#>  3 agency_id              number ""         
#>  4 wbody_id               number ""         
#>  5 obstacle_code          string ""         
#>  6 obstacle_name          string ""         
#>  7 agency_name            string ""         
#>  8 source                 string ""         
#>  9 source_ref             string ""         
#> 10 height                 number ""         
#> # … with 15 more rows
#> 
#> $whse_fish.pscis_assessment_svw
#> # A tibble: 70 × 3
#>    name                   type   description
#>    <chr>                  <chr>  <chr>      
#>  1 id                     string ""         
#>  2 funding_project_number string ""         
#>  3 funding_project        string ""         
#>  4 project_id             number ""         
#>  5 funding_source         string ""         
#>  6 responsible_party_name string ""         
#>  7 consultant_name        string ""         
#>  8 assessment_date        string ""         
#>  9 stream_crossing_id     number ""         
#> 10 assessment_id          number ""         
#> # … with 60 more rows
#> 
#> $whse_fish.pscis_design_proposal_svw
#> # A tibble: 38 × 3
#>    name                    type   description
#>    <chr>                   <chr>  <chr>      
#>  1 id                      string ""         
#>  2 funding_project_number  string ""         
#>  3 funding_project         string ""         
#>  4 project_id              number ""         
#>  5 funding_source          string ""         
#>  6 responsible_party_name  string ""         
#>  7 consultant_name         string ""         
#>  8 proposal_date           string ""         
#>  9 stream_crossing_id      number ""         
#> 10 remediation_proposal_id number ""         
#> # … with 28 more rows
#> 
#> $whse_fish.pscis_habitat_confirmation_svw
#> # A tibble: 41 × 3
#>    name                         type   description
#>    <chr>                        <chr>  <chr>      
#>  1 id                           string ""         
#>  2 assmt_funding_project_number string ""         
#>  3 assmt_funding_project        string ""         
#>  4 assmt_project_id             number ""         
#>  5 assmt_funding_source         string ""         
#>  6 assmt_responsible_party_name string ""         
#>  7 assmt_consultant_name        string ""         
#>  8 assmt_date                   string ""         
#>  9 stream_crossing_id           number ""         
#> 10 habconf_assmt_id             number ""         
#> # … with 31 more rows
#> 
#> $whse_fish.pscis_remediation_svw
#> # A tibble: 43 × 3
#>    name                   type   description
#>    <chr>                  <chr>  <chr>      
#>  1 id                     string ""         
#>  2 funding_project_number string ""         
#>  3 funding_project        string ""         
#>  4 project_id             number ""         
#>  5 funding_source         string ""         
#>  6 responsible_party_name string ""         
#>  7 consultant_name        string ""         
#>  8 completion_date        string ""         
#>  9 stream_crossing_id     number ""         
#> 10 remediation_id         number ""         
#> # … with 33 more rows
…
