…
#> 16 noncontributingareaacres number ""         
#> 17 noncontributingareasqkm  number ""         
#> 18 globalid                 string ""         
#> 19 shape_length             number ""         
#> 20 shape_area               number ""         
#> 
#> $whse_basemapping.fwa_approx_borders
#> # A tibble: 2 × 3
#>   name             type   description                                           
#>   <chr>            <chr>  <chr>                                                 
#> 1 approx_border_id number unique identifer                                      
#> 2 border           string a code identifying the border (usa49, ytnwt_60, ab_12…
#> 
#> $whse_basemapping.fwa_assessment_watersheds_poly
#> # A tibble: 24 × 3
#>    name                 type   description
#>    <chr>                <chr>  <chr>      
#>  1 watershed_feature_id number ""         
#>  2 watershed_group_id   number ""         
#>  3 watershed_type       string ""         
#>  4 gnis_id_1            number ""         
#>  5 gnis_name_1          string ""         
#>  6 gnis_id_2            number ""         
#>  7 gnis_name_2          string ""         
#>  8 gnis_id_3            number ""         
#>  9 gnis_name_3          string ""         
#> 10 waterbody_id         number ""         
#> # ℹ 14 more rows
…
#>  3 edge_type                number ""         
#>  4 blue_line_key            number ""         
#>  5 watershed_key            number ""         
#>  6 fwa_watershed_code       string ""         
#>  7 local_watershed_code     string ""         
#>  8 watershed_group_code     string ""         
#>  9 downstream_route_measure number ""         
#> 10 length_metre             number ""         
#> 11 feature_source           string ""         
#> 12 feature_code             string ""         
#> 13 wscode_ltree             string ""         
#> 14 localcode_ltree          string ""         
#> 
#> $whse_basemapping.fwa_glaciers_poly
#> # A tibble: 24 × 3
#>    name               type   description
#>    <chr>              <chr>  <chr>      
#>  1 waterbody_poly_id  number ""         
#>  2 watershed_group_id number ""         
#>  3 waterbody_type     string ""         
#>  4 waterbody_key      number ""         
#>  5 area_ha            number ""         
#>  6 gnis_id_1          number ""         
#>  7 gnis_name_1        string ""         
#>  8 gnis_id_2          number ""         
#>  9 gnis_name_2        string ""         
#> 10 gnis_id_3          number ""         
#> # ℹ 14 more rows
…
#>  3 gnis_id_1            number ""         
#>  4 gnis_name_1          string ""         
#>  5 gnis_id_2            number ""         
#>  6 gnis_name_2          string ""         
#>  7 gnis_id_3            number ""         
#>  8 gnis_name_3          string ""         
#>  9 fwa_watershed_code   string ""         
#> 10 local_watershed_code string ""         
#> 11 area_ha              number ""         
#> 12 feature_code         string ""         
#> 13 wscode_ltree         string ""         
#> 14 localcode_ltree      string ""         
#> 
#> $whse_basemapping.fwa_lakes_poly
#> # A tibble: 24 × 3
#>    name               type   description
#>    <chr>              <chr>  <chr>      
#>  1 waterbody_poly_id  number ""         
#>  2 watershed_group_id number ""         
#>  3 waterbody_type     string ""         
#>  4 waterbody_key      number ""         
#>  5 area_ha            number ""         
#>  6 gnis_id_1          number ""         
#>  7 gnis_name_1        string ""         
#>  8 gnis_id_2          number ""         
#>  9 gnis_name_2        string ""         
#> 10 gnis_id_3          number ""         
#> # ℹ 14 more rows
…
#>  4 waterbody_key            number ""         
#>  5 blue_line_key            number ""         
#>  6 watershed_key            number ""         
#>  7 fwa_watershed_code       string ""         
#>  8 local_watershed_code     string ""         
#>  9 watershed_group_code     string ""         
#> 10 downstream_route_measure number ""         
#> 11 length_metre             number ""         
#> 12 feature_source           string ""         
#> 13 feature_code             string ""         
#> 14 wscode_ltree             string ""         
#> 15 localcode_ltree          string ""         
#> 
#> $whse_basemapping.fwa_manmade_waterbodies_poly
#> # A tibble: 24 × 3
#>    name               type   description
#>    <chr>              <chr>  <chr>      
#>  1 waterbody_poly_id  number ""         
#>  2 watershed_group_id number ""         
#>  3 waterbody_type     string ""         
#>  4 waterbody_key      number ""         
#>  5 area_ha            number ""         
#>  6 gnis_id_1          number ""         
#>  7 gnis_name_1        string ""         
#>  8 gnis_id_2          number ""         
#>  9 gnis_name_2        string ""         
#> 10 gnis_id_3          number ""         
#> # ℹ 14 more rows
…
#>  5 gnis_name            string ""         
#>  6 obstruction_type     string ""         
#>  7 blue_line_key        number ""         
#>  8 watershed_key        number ""         
#>  9 fwa_watershed_code   string ""         
#> 10 local_watershed_code string ""         
#> 11 watershed_group_code string ""         
#> 12 route_measure        number ""         
#> 13 feature_source       string ""         
#> 14 feature_code         string ""         
#> 15 wscode_ltree         string ""         
#> 16 localcode_ltree      string ""         
#> 
#> $whse_basemapping.fwa_rivers_poly
#> # A tibble: 24 × 3
#>    name               type   description
#>    <chr>              <chr>  <chr>      
#>  1 waterbody_poly_id  number ""         
#>  2 watershed_group_id number ""         
#>  3 waterbody_type     string ""         
#>  4 waterbody_key      number ""         
#>  5 area_ha            number ""         
#>  6 gnis_id_1          number ""         
#>  7 gnis_name_1        string ""         
#>  8 gnis_id_2          number ""         
#>  9 gnis_name_2        string ""         
#> 10 gnis_id_3          number ""         
#> # ℹ 14 more rows
#> 
#> $whse_basemapping.fwa_stream_networks_sp
#> # A tibble: 26 × 3
#>    name                     type   description
#>    <chr>                    <chr>  <chr>      
#>  1 linear_feature_id        number ""         
#>  2 watershed_group_id       number ""         
#>  3 edge_type                number ""         
#>  4 blue_line_key            number ""         
#>  5 watershed_key            number ""         
#>  6 fwa_watershed_code       string ""         
#>  7 local_watershed_code     string ""         
#>  8 watershed_group_code     string ""         
#>  9 downstream_route_measure number ""         
#> 10 length_metre             number ""         
#> # ℹ 16 more rows
#> 
#> $whse_basemapping.fwa_streams
#> # A tibble: 24 × 3
#>    name                     type   description                                  
#>    <chr>                    <chr>  <chr>                                        
#>  1 linear_feature_id        number See FWA documentation                        
#>  2 edge_type                number See FWA documentation                        
#>  3 blue_line_key            number See FWA documentation                        
#>  4 watershed_key            number See FWA documentation                        
#>  5 wscode                   string FWA watershed code as postgres ltree type, w…
#>  6 localcode                string FWA local watershed code as postgres ltree t…
#>  7 watershed_group_code     string See FWA documentation                        
#>  8 downstream_route_measure number See FWA documentation                        
#>  9 upstream_route_measure   number See FWA documentation                        
#> 10 length_metre             number See FWA documentation                        
#> # ℹ 14 more rows
#> 
#> $whse_basemapping.fwa_streams_vw
#> # A tibble: 24 × 3
#>    name                     type   description                                  
#>    <chr>                    <chr>  <chr>                                        
#>  1 linear_feature_id        number See FWA documentation                        
#>  2 edge_type                number See FWA documentation                        
#>  3 blue_line_key            number See FWA documentation                        
#>  4 watershed_key            number See FWA documentation                        
#>  5 wscode                   string FWA watershed code as postgres ltree type, w…
#>  6 localcode                string FWA local watershed code as postgres ltree t…
#>  7 watershed_group_code     string See FWA documentation                        
#>  8 downstream_route_measure number See FWA documentation                        
#>  9 upstream_route_measure   number See FWA documentation                        
#> 10 length_metre             number See FWA documentation                        
#> # ℹ 14 more rows
…
#>    name                 type   description
#>    <chr>                <chr>  <chr>      
#>  1 watershed_group_id   number ""         
#>  2 watershed_group_code string ""         
#>  3 watershed_group_name string ""         
#>  4 area_ha              number ""         
#>  5 feature_code         string ""         
#>  6 fwa_watershed_code   string ""         
#>  7 local_watershed_code string ""         
#>  8 wscode_ltree         string ""         
#>  9 localcode_ltree      string ""         
#> 10 basin_id             number ""         
#> 
#> $whse_basemapping.fwa_watersheds_poly
#> # A tibble: 36 × 3
#>    name                 type   description
#>    <chr>                <chr>  <chr>      
#>  1 watershed_feature_id number ""         
#>  2 watershed_group_id   number ""         
#>  3 watershed_type       string ""         
#>  4 gnis_id_1            number ""         
#>  5 gnis_name_1          string ""         
#>  6 gnis_id_2            number ""         
#>  7 gnis_name_2          string ""         
#>  8 gnis_id_3            number ""         
#>  9 gnis_name_3          string ""         
#> 10 waterbody_id         number ""         
#> # ℹ 26 more rows
#> 
#> $whse_basemapping.fwa_wetlands_poly
#> # A tibble: 24 × 3
#>    name               type   description
#>    <chr>              <chr>  <chr>      
#>  1 waterbody_poly_id  number ""         
#>  2 watershed_group_id number ""         
#>  3 waterbody_type     string ""         
#>  4 waterbody_key      number ""         
#>  5 area_ha            number ""         
#>  6 gnis_id_1          number ""         
#>  7 gnis_name_1        string ""         
#>  8 gnis_id_2          number ""         
#>  9 gnis_name_2        string ""         
#> 10 gnis_id_3          number ""         
#> # ℹ 14 more rows
```
