Using fwapgr • fwapgr
…
      Using fwapgr spatial operations

  Changelog

      Using fwapgr

      Source: vignettes/fwapgr.Rmd
      fwapgr.Rmd

fwapgr is an R client for the BC Freshwater Atlas PostgreSQL database web API. It gets and filters data from the BC Freshwater Atlas into R!

In this article, we will create a basic map of the Yakoun River watershed in Haida Gwaii, BC, primarily using fwapgr’s workhorse function: fwa_collection. We can get started by looking at all available tables and which columns are in a specific table.

fwapgr::fwa_meta_collections()
#> # A tibble: 41 x 4
#>    collection_id           description                extent$crs $bbox  links   
#>    <chr>                   <chr>                      <chr>      <list> <list>  
#>  1 hydrosheds.hybas_lev12… Data for table hydrosheds… EPSG:3005  <int … <df[,4]…
#>  2 usgs.wbdhu12            Data for table usgs.wbdhu… EPSG:3005  <int … <df[,4]…
#>  3 whse_basemapping.fwa_a… Data for table whse_basem… EPSG:3005  <int … <df[,4]…
#>  4 whse_basemapping.fwa_a… Data for table whse_basem… EPSG:3005  <int … <df[,4]…
#>  5 whse_basemapping.fwa_b… Data for table whse_basem… EPSG:3005  <int … <df[,4]…
#>  6 whse_basemapping.fwa_b… Data for table whse_basem… EPSG:3005  <int … <df[,4]…
#>  7 whse_basemapping.fwa_b… Data for table whse_basem… EPSG:3005  <int … <df[,4]…
#>  8 whse_basemapping.fwa_c… Data for table whse_basem… EPSG:3005  <int … <df[,4]…
#>  9 whse_basemapping.fwa_g… Data for table whse_basem… EPSG:3005  <int … <df[,4]…
#> 10 whse_basemapping.fwa_i… Data for table whse_basem… EPSG:3005  <int … <df[,4]…
#> # … with 31 more rows

fwapgr::fwa_meta_properties('whse_basemapping.fwa_stream_networks_sp')
#> # A tibble: 27 x 3
#>    name                     type   description
#>    <chr>                    <chr>  <chr>      
#>  1 linear_feature_id        number ""         
#>  2 watershed_group_id       number ""         
#>  3 edge_type                number ""         
#>  4 blue_line_key            number ""         
#>  5 watershed_key            number ""         
#>  6 fwa_watershed_code       string ""         
#>  7 local_watershed_code     string ""         
#>  8 watershed_group_code     string ""         
#>  9 downstream_route_measure number ""         
#> 10 length_metre             number ""         
#> # … with 17 more rows
…
